[gd_scene load_steps=3 format=2]

[ext_resource path="res://Sprites/normalPlatforms/platform12.png" type="Texture" id=2]

[sub_resource type="RectangleShape2D" id=1]
extents = Vector2( 264.511, 17.4749 )

[node name="platform1" type="StaticBody2D"]

[node name="CollisionShape2D" type="CollisionShape2D" parent="."]
position = Vector2( 2.32135, -3.09512 )
shape = SubResource( 1 )

[node name="CollisionShape2D2" type="CollisionShape2D" parent="."]
position = Vector2( -248.225, 30.4408 )
scale = Vector2( 0.122667, 1 )
shape = SubResource( 1 )

[node name="CollisionShape2D3" type="CollisionShape2D" parent="."]
position = Vector2( -16.0486, 27.9756 )
scale = Vector2( 0.122667, 1 )
shape = SubResource( 1 )

[node name="CollisionShape2D4" type="CollisionShape2D" parent="."]
position = Vector2( 196.096, 32.5069 )
scale = Vector2( 0.122667, 1 )
shape = SubResource( 1 )

[node name="Sprite" type="Sprite" parent="."]
texture = ExtResource( 2 )
__meta__ = {
"_edit_group_": true
}
