[gd_scene load_steps=3 format=2]

[ext_resource path="res://Sprites/normalPlatforms/platform9.png" type="Texture" id=2]

[sub_resource type="RectangleShape2D" id=1]
extents = Vector2( 83.4379, 73.9627 )

[node name="platform1" type="StaticBody2D"]

[node name="CollisionShape2D" type="CollisionShape2D" parent="."]
position = Vector2( -0.857422, 10.2885 )
shape = SubResource( 1 )

[node name="Sprite" type="Sprite" parent="."]
texture = ExtResource( 2 )
__meta__ = {
"_edit_group_": true
}
