[gd_scene load_steps=4 format=2]

[ext_resource path="res://Sprites/bbod.png" type="Texture" id=1]
[ext_resource path="res://Scripts/Spinner.gd" type="Script" id=4]

[sub_resource type="CircleShape2D" id=1]
radius = 354.863

[node name="Spinner" type="KinematicBody2D"]
input_pickable = true
script = ExtResource( 4 )
speed = 5

[node name="Spinner_Shape" type="CollisionShape2D" parent="."]
scale = Vector2( 0.1, 0.1 )
shape = SubResource( 1 )

[node name="Sprite" type="Sprite" parent="Spinner_Shape"]
scale = Vector2( 1.91794, 1.91794 )
texture = ExtResource( 1 )
